test_run_dir/SpiController_should_pass/SpiMemController.vcd
$date
2025-04-09T12:17+0000
$end
$version
0.2
$end
$comment

$end
$timescale 1ns  $end
$scope module SpiMemController $end
 $var wire 1 ! io_sclk $end
 $var wire 1 " quadReg $end
 $var wire 1 # io_rw $end
 $var wire 24 $ io_addr $end
 $var wire 1 % reset $end
 $var wire 8 & shiftRstReg $end
 $var wire 32 ' io_dataOut $end
 $var wire 4 ( io_sioIn $end
 $var wire 32 ) shiftRegOut $end
 $var wire 1 * ceReg $end
 $var wire 1 + io_en $end
 $var wire 6 , bitCounter $end
 $var wire 1 - clock $end
 $var wire 4 . io_sioOut $end
 $var wire 1 / io_done $end
 $var wire 1 0 sclkReg $end
 $var wire 1 1 io_rst $end
 $var wire 4 2 stateReg $end
 $var wire 1 3 io_ce $end
 $var wire 1 4 io_so $end
 $var wire 1 5 io_si $end
 $var wire 32 6 io_dataIn $end
$upscope $end
$enddefinitions $end
$dumpvars
00
01
03
04
b00000000000000000000000000000000 '
b000000000000000000000000 $
05
b00000000 &
b00000000000000000000000000000000 )
b0000 (
0!
b0000 2
0"
0#
0%
b00000000000000000000000000000000 6
b0000 .
b000000 ,
0*
0+
0-
0/
$end
#0
1%
#1
1-
#6
0%
0-
#11
1"
b0001 2
b00110101000000000000000000000000 )
b000111 ,
1-
#16
0-
#21
b01101010000000000000000000000000 )
b000110 ,
1-
#26
0-
#31
15
b0001 (
b11010100000000000000000000000000 )
b000101 ,
1-
#36
0-
#41
b10101000000000000000000000000000 )
b000100 ,
1-
#46
0-
#51
05
b0000 (
b01010000000000000000000000000000 )
b000011 ,
1-
#56
0-
#61
15
b0001 (
b10100000000000000000000000000000 )
b000010 ,
1-
#66
0-
#71
05
b0000 (
b01000000000000000000000000000000 )
b000001 ,
1-
#76
0-
#81
15
b0001 (
b10000000000000000000000000000000 )
b000000 ,
1-
#86
0-
#91
b0100 2
13
05
b0000 (
b00000000000000000000000000000000 )
1*
b111111 ,
1-
1/
#96
0-
#101
b0000 2
1-
0/
#106
1#
b101010111100110111101111 $
b00010010001101000101011001111000 6
1+
0-
b1010 .
#111
b0011 2
03
b00000010101010111100110111101111 )
0*
b001111 ,
1-
#116
0-
#121
b0010 (
b00101010101111001101111011110000 )
b001110 ,
1-
#126
0-
#131
15
b1010 (
b10101011110011011110111100000000 )
b001101 ,
1-
#136
0-
#141
b1011 (
b10111100110111101111000000000000 )
b001100 ,
1-
#146
0-
#151
b1100 (
b11001101111011110000000000000000 )
b001011 ,
1-
#156
0-
#161
b1101 (
b11011110111100000000000000000000 )
b001010 ,
1-
#166
0-
#171
b1110 (
b11101111000000000000000000000000 )
b001001 ,
1-
#176
0-
#181
b1111 (
b11110000000000000000000000000000 )
b001000 ,
1-
#186
0-
#191
05
b0001 (
b00010010001101000101011001111000 )
b000111 ,
1-
#196
0-
#201
b0010 (
b00100011010001010110011110000000 )
b000110 ,
1-
#206
0-
#211
b0011 (
b00110100010101100111100000000000 )
b000101 ,
1-
#216
0-
#221
b0100 (
b01000101011001111000000000000000 )
b000100 ,
1-
#226
0-
#231
b0101 (
b01010110011110000000000000000000 )
b000011 ,
1-
#236
0-
#241
b0110 (
b01100111100000000000000000000000 )
b000010 ,
1-
#246
0-
#251
b0111 (
b01111000000000000000000000000000 )
b000001 ,
1-
#256
0-
#261
15
b1000 (
b10000000000000000000000000000000 )
b000000 ,
1-
#266
0-
#271
b0100 2
13
05
b0000 (
b00000000000000000000000000000000 )
1*
b111111 ,
1-
1/
#276
0-
#281
b0000 2
1-
0/
#286
0-
#291
b0011 2
03
b00000010101010111100110111101111 )
0*
b001111 ,
1-
#296
0-
#301
b0010 (
b00101010101111001101111011110000 )
b001110 ,
1-
#306
0-
#311
15
b1010 (
b10101011110011011110111100000000 )
b001101 ,
1-
#316
0-
#321
b1011 (
b10111100110111101111000000000000 )
b001100 ,
1-
#326
0-
#331
b1100 (
b11001101111011110000000000000000 )
b001011 ,
1-
#336
0-
#341
b1101 (
b11011110111100000000000000000000 )
b001010 ,
1-
#346
0-
#351
b1110 (
b11101111000000000000000000000000 )
b001001 ,
1-
#356
0-
#361
b1111 (
b11110000000000000000000000000000 )
b001000 ,
1-
#366
0-
#371
05
b0001 (
b00010010001101000101011001111000 )
b000111 ,
1-
#376
0-
#381
b0010 (
b00100011010001010110011110000000 )
b000110 ,
1-
#386
0-
#391
b0011 (
b00110100010101100111100000000000 )
b000101 ,
1-
#396
0-
#401
b0100 (
b01000101011001111000000000000000 )
b000100 ,
1-
#406
0-
#411
b0101 (
b01010110011110000000000000000000 )
b000011 ,
1-
#416
0-
#421
b0110 (
b01100111100000000000000000000000 )
b000010 ,
1-
#426
0-
#431
b0111 (
b01111000000000000000000000000000 )
b000001 ,
1-
#436
0-
#441
15
b1000 (
b10000000000000000000000000000000 )
b000000 ,
1-
#446
0#
b000000000000000000000000 $
b00000000000000000000000000000000 6
0+
0-
b0000 .
#451
b0100 2
13
05
b0000 (
b00000000000000000000000000000000 )
1*
b111111 ,
1-
1/
#456
0-
#461
b0000 2
1-
0/
#466
0-
#471
1-
#476
b000100100011010001010110 $
1+
0-
#481
b0010 2
03
15
b1110 (
b11101011000100100011010001010110 )
0*
b000111 ,
1-
#486
0+
0-
#491
b1011 (
b10110001001000110100010101100000 )
b000110 ,
1-
#496
0-
#501
05
b0001 (
b00010010001101000101011000000000 )
b000101 ,
1-
#506
0-
#511
b0010 (
b00100011010001010110000000000000 )
b000100 ,
1-
#516
0-
#521
b0011 (
b00110100010101100000000000000000 )
b000011 ,
1-
#526
0-
#531
b0100 (
b01000101011000000000000000000000 )
b000010 ,
1-
#536
0-
#541
b0101 (
b01010110000000000000000000000000 )
b000001 ,
1-
#546
0-
#551
b0110 (
b01100000000000000000000000000000 )
b000000 ,
1-
#556
0-
#561
b1001 2
b0000 (
b00000000000000000000000000000000 )
b000111 ,
1-
#566
0-
#571
b000110 ,
1-
#576
0-
#581
b000101 ,
1-
#586
0-
#591
b000100 ,
1-
#596
0-
#601
b000011 ,
1-
#606
0-
#611
b000010 ,
1-
#616
0-
#621
b000001 ,
1-
#626
0-
#631
b000000 ,
1-
#636
0-
#641
b0100 2
b111111 ,
1-
1/
#646
0-
#651
b0000 2
13
1*
1-
0/
#656
0-
#661
1-
#666
0-
#671
1-
#676
0-
#681
1-
#686
b000000000000000000000000 $
0-
