test_run_dir/BootloaderTop_should_Receive_entire_instruction_and_addr_and_enable_writing/BootloaderTop.vcd
$date
2025-03-16T10:51+0000
$end
$version
0.2
$end
$comment

$end
$timescale 1ns  $end
$scope module BootloaderTop $end
 $var wire 32 ! io_instrData $end
 $var wire 1 # io_rx $end
 $var wire 1 ) reset $end
 $var wire 1 + rx $end
 $var wire 1 , save $end
 $var wire 1 0 incr $end
 $var wire 1 8 buffer $end
 $var wire 1 9 io_wrEnabled $end
 $var wire 1 : clock $end
 $var wire 1 ; wrEnabled $end
 $var wire 1 = stateReg $end
 $var wire 4 > byteCount $end
 $var wire 32 A io_instrAddr $end
  $scope module rx $end
   $var wire 1 " rxReg_REG $end
   $var wire 1 $ valReg $end
   $var wire 4 % bitsReg $end
   $var wire 8 & io_channel_bits $end
   $var wire 1 ' clock $end
   $var wire 1 ( io_rxd $end
   $var wire 1 - io_channel_valid $end
   $var wire 8 1 shiftReg $end
   $var wire 1 3 falling $end
   $var wire 1 4 reset $end
   $var wire 20 5 cntReg $end
   $var wire 1 < io_channel_ready $end
   $var wire 1 ? rxReg $end
   $var wire 1 @ falling_REG $end
  $upscope $end
  $scope module buffer $end
   $var wire 1 * reset $end
   $var wire 64 . io_dataOut $end
   $var wire 8 / io_dataIn $end
   $var wire 1 2 clock $end
   $var wire 64 6 buffer $end
   $var wire 1 7 io_saveCtrl $end
  $upscope $end
$upscope $end
$enddefinitions $end
$dumpvars
00
02
b0000000000000000000000000000000000000000000000000000000000000000 6
03
04
b00000000000000000000 5
b00000000 &
b0000 >
07
08
09
0:
b0000000000000000000000000000000000000000000000000000000000000000 .
0;
0<
0=
b00000000000000000000000000000000 !
0?
0@
b00000000 /
b00000000 1
b0000 %
b00000000000000000000000000000000 A
0"
0#
0$
0'
0(
0)
0*
0+
0,
0-
$end
#0
14
1)
1*
#1
12
b00000000000001010110 5
1'
1:
1=
#6
02
1#
04
0'
1(
0)
0*
0:
#11
1"
12
b00000000000001010101 5
1'
1:
#16
02
0'
0:
#21
12
b00000000000001010100 5
1'
1:
1?
#26
02
0'
0:
#31
1@
12
b00000000000001010011 5
1'
1:
#36
02
0'
0:
#41
12
b00000000000001010010 5
1'
1:
#46
02
0'
0:
#51
12
b00000000000001010001 5
1'
1:
#56
02
0'
0:
#61
12
b00000000000001010000 5
1'
1:
#66
02
0'
0:
#71
12
b00000000000001001111 5
1'
1:
#76
02
0'
0:
#81
12
b00000000000001001110 5
1'
1:
#86
02
0'
0:
#91
12
b00000000000001001101 5
1'
1:
#96
02
0'
0:
#101
12
b00000000000001001100 5
1'
1:
#106
02
0'
0:
#111
12
b00000000000001001011 5
1'
1:
#116
02
0'
0:
#121
12
b00000000000001001010 5
1'
1:
#126
02
0'
0:
#131
12
b00000000000001001001 5
1'
1:
#136
02
0'
0:
#141
12
b00000000000001001000 5
1'
1:
#146
02
0'
0:
#151
12
b00000000000001000111 5
1'
1:
#156
02
0'
0:
#161
12
b00000000000001000110 5
1'
1:
#166
02
0'
0:
#171
12
b00000000000001000101 5
1'
1:
#176
02
0'
0:
#181
12
b00000000000001000100 5
1'
1:
#186
02
0'
0:
#191
12
b00000000000001000011 5
1'
1:
#196
02
0'
0:
#201
12
b00000000000001000010 5
1'
1:
#206
02
0'
0:
#211
12
b00000000000001000001 5
1'
1:
#216
02
0'
0:
#221
12
b00000000000001000000 5
1'
1:
#226
02
0'
0:
#231
12
b00000000000000111111 5
1'
1:
#236
02
0'
0:
#241
12
b00000000000000111110 5
1'
1:
#246
02
0'
0:
#251
12
b00000000000000111101 5
1'
1:
#256
02
0'
0:
#261
12
b00000000000000111100 5
1'
1:
#266
02
0'
0:
#271
12
b00000000000000111011 5
1'
1:
#276
02
0'
0:
#281
12
b00000000000000111010 5
1'
1:
#286
02
0'
0:
#291
12
b00000000000000111001 5
1'
1:
#296
02
0'
0:
#301
12
b00000000000000111000 5
1'
1:
#306
02
0'
0:
#311
12
b00000000000000110111 5
1'
1:
#316
02
0'
0:
#321
12
b00000000000000110110 5
1'
1:
#326
02
0'
0:
#331
12
b00000000000000110101 5
1'
1:
#336
02
0'
0:
#341
12
b00000000000000110100 5
1'
1:
#346
02
0'
0:
#351
12
b00000000000000110011 5
1'
1:
#356
02
0'
0:
#361
12
b00000000000000110010 5
1'
1:
#366
02
0'
0:
#371
12
b00000000000000110001 5
1'
1:
#376
02
0'
0:
#381
12
b00000000000000110000 5
1'
1:
#386
02
0'
0:
#391
12
b00000000000000101111 5
1'
1:
#396
02
0'
0:
#401
12
b00000000000000101110 5
1'
1:
#406
02
0'
0:
#411
12
b00000000000000101101 5
1'
1:
#416
02
0'
0:
#421
12
b00000000000000101100 5
1'
1:
#426
02
0'
0:
#431
12
b00000000000000101011 5
1'
1:
#436
02
0'
0:
#441
12
b00000000000000101010 5
1'
1:
#446
02
0'
0:
#451
12
b00000000000000101001 5
1'
1:
#456
02
0'
0:
#461
12
b00000000000000101000 5
1'
1:
#466
02
0'
0:
#471
12
b00000000000000100111 5
1'
1:
#476
02
0'
0:
#481
12
b00000000000000100110 5
1'
1:
#486
02
0'
0:
#491
12
b00000000000000100101 5
1'
1:
#496
02
0'
0:
#501
12
b00000000000000100100 5
1'
1:
#506
02
0'
0:
#511
12
b00000000000000100011 5
1'
1:
#516
02
0'
0:
#521
12
b00000000000000100010 5
1'
1:
#526
02
0'
0:
#531
12
b00000000000000100001 5
1'
1:
#536
02
0'
0:
#541
12
b00000000000000100000 5
1'
1:
#546
02
0'
0:
#551
12
b00000000000000011111 5
1'
1:
#556
02
0'
0:
#561
12
b00000000000000011110 5
1'
1:
#566
02
0'
0:
#571
12
b00000000000000011101 5
1'
1:
#576
02
0'
0:
#581
12
b00000000000000011100 5
1'
1:
#586
02
0'
0:
#591
12
b00000000000000011011 5
1'
1:
#596
02
0'
0:
#601
12
b00000000000000011010 5
1'
1:
#606
02
0'
0:
#611
12
b00000000000000011001 5
1'
1:
#616
02
0'
0:
#621
12
b00000000000000011000 5
1'
1:
#626
02
0'
0:
#631
12
b00000000000000010111 5
1'
1:
#636
02
0'
0:
#641
12
b00000000000000010110 5
1'
1:
#646
02
0'
0:
#651
12
b00000000000000010101 5
1'
1:
#656
02
0'
0:
#661
12
b00000000000000010100 5
1'
1:
#666
02
0'
0:
#671
12
b00000000000000010011 5
1'
1:
#676
02
0'
0:
#681
12
b00000000000000010010 5
1'
1:
#686
02
0'
0:
#691
12
b00000000000000010001 5
1'
1:
#696
02
0'
0:
#701
12
b00000000000000010000 5
1'
1:
#706
02
0'
0:
#711
12
b00000000000000001111 5
1'
1:
#716
02
0'
0:
#721
12
b00000000000000001110 5
1'
1:
#726
02
0'
0:
#731
12
b00000000000000001101 5
1'
1:
#736
02
0'
0:
#741
12
b00000000000000001100 5
1'
1:
#746
02
0'
0:
#751
12
b00000000000000001011 5
1'
1:
#756
02
0'
0:
#761
12
b00000000000000001010 5
1'
1:
#766
02
0'
0:
#771
12
b00000000000000001001 5
1'
1:
#776
02
0'
0:
#781
12
b00000000000000001000 5
1'
1:
#786
02
0'
0:
#791
12
b00000000000000000111 5
1'
1:
#796
02
0'
0:
#801
12
b00000000000000000110 5
1'
1:
#806
02
0'
0:
#811
12
b00000000000000000101 5
1'
1:
#816
02
0'
0:
#821
12
b00000000000000000100 5
1'
1:
#826
02
0'
0:
#831
12
b00000000000000000011 5
1'
1:
#836
02
0'
0:
#841
12
b00000000000000000010 5
1'
1:
#846
02
0'
0:
#851
12
b00000000000000000001 5
1'
1:
#856
02
0'
0:
#861
12
b00000000000000000000 5
1'
1:
#866
02
0#
0'
0(
0:
#871
0"
12
1'
1:
#876
02
0'
0:
#881
12
13
1'
1:
0?
#886
02
0'
0:
#891
0@
12
03
b1000 %
b00000000000010000000 5
1'
1:
#896
02
0'
0:
#901
12
b00000000000001111111 5
1'
1:
#906
02
0'
0:
#911
12
b00000000000001111110 5
1'
1:
#916
02
0'
0:
#921
12
b00000000000001111101 5
1'
1:
#926
02
0'
0:
#931
12
b00000000000001111100 5
1'
1:
#936
02
0'
0:
#941
12
b00000000000001111011 5
1'
1:
#946
02
0'
0:
#951
12
b00000000000001111010 5
1'
1:
#956
02
0'
0:
#961
12
b00000000000001111001 5
1'
1:
#966
02
0'
0:
#971
12
b00000000000001111000 5
1'
1:
#976
02
0'
0:
#981
12
b00000000000001110111 5
1'
1:
#986
02
0'
0:
#991
12
b00000000000001110110 5
1'
1:
#996
02
0'
0:
#1001
12
b00000000000001110101 5
1'
1:
#1006
02
0'
0:
#1011
12
b00000000000001110100 5
1'
1:
#1016
02
0'
0:
#1021
12
b00000000000001110011 5
1'
1:
#1026
02
0'
0:
#1031
12
b00000000000001110010 5
1'
1:
#1036
02
0'
0:
#1041
12
b00000000000001110001 5
1'
1:
#1046
02
0'
0:
#1051
12
b00000000000001110000 5
1'
1:
#1056
02
0'
0:
#1061
12
b00000000000001101111 5
1'
1:
#1066
02
0'
0:
#1071
12
b00000000000001101110 5
1'
1:
#1076
02
0'
0:
#1081
12
b00000000000001101101 5
1'
1:
#1086
02
0'
0:
#1091
12
b00000000000001101100 5
1'
1:
#1096
02
0'
0:
#1101
12
b00000000000001101011 5
1'
1:
#1106
02
0'
0:
#1111
12
b00000000000001101010 5
1'
1:
#1116
02
0'
0:
#1121
12
b00000000000001101001 5
1'
1:
#1126
02
0'
0:
#1131
12
b00000000000001101000 5
1'
1:
#1136
02
0'
0:
#1141
12
b00000000000001100111 5
1'
1:
#1146
02
0'
0:
#1151
12
b00000000000001100110 5
1'
1:
#1156
02
0'
0:
#1161
12
b00000000000001100101 5
1'
1:
#1166
02
0'
0:
#1171
12
b00000000000001100100 5
1'
1:
#1176
02
0'
0:
#1181
12
b00000000000001100011 5
1'
1:
#1186
02
0'
0:
#1191
12
b00000000000001100010 5
1'
1:
#1196
02
0'
0:
#1201
12
b00000000000001100001 5
1'
1:
#1206
02
0'
0:
#1211
12
b00000000000001100000 5
1'
1:
#1216
02
0'
0:
#1221
12
b00000000000001011111 5
1'
1:
#1226
02
0'
0:
#1231
12
b00000000000001011110 5
1'
1:
#1236
02
0'
0:
#1241
12
b00000000000001011101 5
1'
1:
#1246
02
0'
0:
#1251
12
b00000000000001011100 5
1'
1:
#1256
02
0'
0:
#1261
12
b00000000000001011011 5
1'
1:
#1266
02
0'
0:
#1271
12
b00000000000001011010 5
1'
1:
#1276
02
0'
0:
#1281
12
b00000000000001011001 5
1'
1:
#1286
02
0'
0:
#1291
12
b00000000000001011000 5
1'
1:
#1296
02
0'
0:
#1301
12
b00000000000001010111 5
1'
1:
#1306
02
0'
0:
#1311
12
b00000000000001010110 5
1'
1:
#1316
02
0'
0:
#1321
12
b00000000000001010101 5
1'
1:
#1326
02
0'
0:
#1331
12
b00000000000001010100 5
1'
1:
#1336
02
0'
0:
#1341
12
b00000000000001010011 5
1'
1:
#1346
02
0'
0:
#1351
12
b00000000000001010010 5
1'
1:
#1356
02
0'
0:
#1361
12
b00000000000001010001 5
1'
1:
#1366
02
0'
0:
#1371
12
b00000000000001010000 5
1'
1:
#1376
02
0'
0:
#1381
12
b00000000000001001111 5
1'
1:
#1386
02
0'
0:
#1391
12
b00000000000001001110 5
1'
1:
#1396
02
0'
0:
#1401
12
b00000000000001001101 5
1'
1:
#1406
02
0'
0:
#1411
12
b00000000000001001100 5
1'
1:
#1416
02
0'
0:
#1421
12
b00000000000001001011 5
1'
1:
#1426
02
0'
0:
#1431
12
b00000000000001001010 5
1'
1:
#1436
02
0'
0:
#1441
12
b00000000000001001001 5
1'
1:
#1446
02
0'
0:
#1451
12
b00000000000001001000 5
1'
1:
#1456
02
0'
0:
#1461
12
b00000000000001000111 5
1'
1:
#1466
02
0'
0:
#1471
12
b00000000000001000110 5
1'
1:
#1476
02
0'
0:
#1481
12
b00000000000001000101 5
1'
1:
#1486
02
0'
0:
#1491
12
b00000000000001000100 5
1'
1:
#1496
02
0'
0:
#1501
12
b00000000000001000011 5
1'
1:
#1506
02
0'
0:
#1511
12
b00000000000001000010 5
1'
1:
#1516
02
0'
0:
#1521
12
b00000000000001000001 5
1'
1:
#1526
02
0'
0:
#1531
12
b00000000000001000000 5
1'
1:
#1536
02
0'
0:
#1541
12
b00000000000000111111 5
1'
1:
#1546
02
0'
0:
#1551
12
b00000000000000111110 5
1'
1:
#1556
02
0'
0:
#1561
12
b00000000000000111101 5
1'
1:
#1566
02
0'
0:
#1571
12
b00000000000000111100 5
1'
1:
#1576
02
0'
0:
#1581
12
b00000000000000111011 5
1'
1:
#1586
02
0'
0:
#1591
12
b00000000000000111010 5
1'
1:
#1596
02
0'
0:
#1601
12
b00000000000000111001 5
1'
1:
#1606
02
0'
0:
#1611
12
b00000000000000111000 5
1'
1:
#1616
02
0'
0:
#1621
12
b00000000000000110111 5
1'
1:
#1626
02
0'
0:
#1631
12
b00000000000000110110 5
1'
1:
#1636
02
0'
0:
#1641
12
b00000000000000110101 5
1'
1:
#1646
02
0'
0:
#1651
12
b00000000000000110100 5
1'
1:
#1656
02
0'
0:
#1661
12
b00000000000000110011 5
1'
1:
#1666
02
0'
0:
#1671
12
b00000000000000110010 5
1'
1:
#1676
02
0'
0:
#1681
12
b00000000000000110001 5
1'
1:
#1686
02
0'
0:
#1691
12
b00000000000000110000 5
1'
1:
#1696
02
0'
0:
#1701
12
b00000000000000101111 5
1'
1:
#1706
02
0'
0:
#1711
12
b00000000000000101110 5
1'
1:
#1716
02
0'
0:
#1721
12
b00000000000000101101 5
1'
1:
#1726
02
1#
0'
1(
0:
#1731
1"
12
b00000000000000101100 5
1'
1:
#1736
02
0'
0:
#1741
12
b00000000000000101011 5
1'
1:
1?
#1746
02
0'
0:
#1751
1@
12
b00000000000000101010 5
1'
1:
#1756
02
0'
0:
#1761
12
b00000000000000101001 5
1'
1:
#1766
02
0'
0:
#1771
12
b00000000000000101000 5
1'
1:
#1776
02
0'
0:
#1781
12
b00000000000000100111 5
1'
1:
#1786
02
0'
0:
#1791
12
b00000000000000100110 5
1'
1:
#1796
02
0'
0:
#1801
12
b00000000000000100101 5
1'
1:
#1806
02
0'
0:
#1811
12
b00000000000000100100 5
1'
1:
#1816
02
0'
0:
#1821
12
b00000000000000100011 5
1'
1:
#1826
02
0'
0:
#1831
12
b00000000000000100010 5
1'
1:
#1836
02
0'
0:
#1841
12
b00000000000000100001 5
1'
1:
#1846
02
0'
0:
#1851
12
b00000000000000100000 5
1'
1:
#1856
02
0'
0:
#1861
12
b00000000000000011111 5
1'
1:
#1866
02
0'
0:
#1871
12
b00000000000000011110 5
1'
1:
#1876
02
0'
0:
#1881
12
b00000000000000011101 5
1'
1:
#1886
02
0'
0:
#1891
12
b00000000000000011100 5
1'
1:
#1896
02
0'
0:
#1901
12
b00000000000000011011 5
1'
1:
#1906
02
0'
0:
#1911
12
b00000000000000011010 5
1'
1:
#1916
02
0'
0:
#1921
12
b00000000000000011001 5
1'
1:
#1926
02
0'
0:
#1931
12
b00000000000000011000 5
1'
1:
#1936
02
0'
0:
#1941
12
b00000000000000010111 5
1'
1:
#1946
02
0'
0:
#1951
12
b00000000000000010110 5
1'
1:
#1956
02
0'
0:
#1961
12
b00000000000000010101 5
1'
1:
#1966
02
0'
0:
#1971
12
b00000000000000010100 5
1'
1:
#1976
02
0'
0:
#1981
12
b00000000000000010011 5
1'
1:
#1986
02
0'
0:
#1991
12
b00000000000000010010 5
1'
1:
#1996
02
0'
0:
#2001
12
b00000000000000010001 5
1'
1:
#2006
02
0'
0:
#2011
12
b00000000000000010000 5
1'
1:
#2016
02
0'
0:
#2021
12
b00000000000000001111 5
1'
1:
#2026
02
0'
0:
#2031
12
b00000000000000001110 5
1'
1:
#2036
02
0'
0:
#2041
12
b00000000000000001101 5
1'
1:
#2046
02
0'
0:
#2051
12
b00000000000000001100 5
1'
1:
#2056
02
0'
0:
#2061
12
b00000000000000001011 5
1'
1:
#2066
02
0'
0:
#2071
12
b00000000000000001010 5
1'
1:
#2076
02
0'
0:
#2081
12
b00000000000000001001 5
1'
1:
#2086
02
0'
0:
#2091
12
b00000000000000001000 5
1'
1:
#2096
02
0'
0:
#2101
12
b00000000000000000111 5
1'
1:
#2106
02
0'
0:
#2111
12
b00000000000000000110 5
1'
1:
#2116
02
0'
0:
#2121
12
b00000000000000000101 5
1'
1:
#2126
02
0'
0:
#2131
12
b00000000000000000100 5
1'
1:
#2136
02
0'
0:
#2141
12
b00000000000000000011 5
1'
1:
#2146
02
0'
0:
#2151
12
b00000000000000000010 5
1'
1:
#2156
02
0'
0:
#2161
12
b00000000000000000001 5
1'
1:
#2166
02
0'
0:
#2171
12
b00000000000000000000 5
1'
1:
#2176
02
0'
0:
#2181
b10000000 1
12
b0111 %
b00000000000001010110 5
b10000000 &
1'
1:
b10000000 /
#2186
02
0'
0:
#2191
12
b00000000000001010101 5
1'
1:
#2196
02
0'
0:
#2201
12
b00000000000001010100 5
1'
1:
#2206
02
0'
0:
#2211
12
b00000000000001010011 5
1'
1:
#2216
02
0'
0:
#2221
12
b00000000000001010010 5
1'
1:
#2226
02
0'
0:
#2231
12
b00000000000001010001 5
1'
1:
#2236
02
0'
0:
#2241
12
b00000000000001010000 5
1'
1:
#2246
02
0'
0:
#2251
12
b00000000000001001111 5
1'
1:
#2256
02
0'
0:
#2261
12
b00000000000001001110 5
1'
1:
#2266
02
0'
0:
#2271
12
b00000000000001001101 5
1'
1:
#2276
02
0'
0:
#2281
12
b00000000000001001100 5
1'
1:
#2286
02
0'
0:
#2291
12
b00000000000001001011 5
1'
1:
#2296
02
0'
0:
#2301
12
b00000000000001001010 5
1'
1:
#2306
02
0'
0:
#2311
12
b00000000000001001001 5
1'
1:
#2316
02
0'
0:
#2321
12
b00000000000001001000 5
1'
1:
#2326
02
0'
0:
#2331
12
b00000000000001000111 5
1'
1:
#2336
02
0'
0:
#2341
12
b00000000000001000110 5
1'
1:
#2346
02
0'
0:
#2351
12
b00000000000001000101 5
1'
1:
#2356
02
0'
0:
#2361
12
b00000000000001000100 5
1'
1:
#2366
02
0'
0:
#2371
12
b00000000000001000011 5
1'
1:
#2376
02
0'
0:
#2381
12
b00000000000001000010 5
1'
1:
#2386
02
0'
0:
#2391
12
b00000000000001000001 5
1'
1:
#2396
02
0'
0:
#2401
12
b00000000000001000000 5
1'
1:
#2406
02
0'
0:
#2411
12
b00000000000000111111 5
1'
1:
#2416
02
0'
0:
#2421
12
b00000000000000111110 5
1'
1:
#2426
02
0'
0:
#2431
12
b00000000000000111101 5
1'
1:
#2436
02
0'
0:
#2441
12
b00000000000000111100 5
1'
1:
#2446
02
0'
0:
#2451
12
b00000000000000111011 5
1'
1:
#2456
02
0'
0:
#2461
12
b00000000000000111010 5
1'
1:
#2466
02
0'
0:
#2471
12
b00000000000000111001 5
1'
1:
#2476
02
0'
0:
#2481
12
b00000000000000111000 5
1'
1:
#2486
02
0'
0:
#2491
12
b00000000000000110111 5
1'
1:
#2496
02
0'
0:
#2501
12
b00000000000000110110 5
1'
1:
#2506
02
0'
0:
#2511
12
b00000000000000110101 5
1'
1:
#2516
02
0'
0:
#2521
12
b00000000000000110100 5
1'
1:
#2526
02
0'
0:
#2531
12
b00000000000000110011 5
1'
1:
#2536
02
0'
0:
#2541
12
b00000000000000110010 5
1'
1:
#2546
02
0'
0:
#2551
12
b00000000000000110001 5
1'
1:
#2556
02
0'
0:
#2561
12
b00000000000000110000 5
1'
1:
#2566
02
0'
0:
#2571
12
b00000000000000101111 5
1'
1:
#2576
02
0'
0:
#2581
12
b00000000000000101110 5
1'
1:
#2586
02
0#
0'
0(
0:
#2591
0"
12
b00000000000000101101 5
1'
1:
#2596
02
0'
0:
#2601
12
13
b00000000000000101100 5
1'
1:
0?
#2606
02
0'
0:
#2611
0@
12
03
b00000000000000101011 5
1'
1:
#2616
02
0'
0:
#2621
12
b00000000000000101010 5
1'
1:
#2626
02
0'
0:
#2631
12
b00000000000000101001 5
1'
1:
#2636
02
0'
0:
#2641
12
b00000000000000101000 5
1'
1:
#2646
02
0'
0:
#2651
12
b00000000000000100111 5
1'
1:
#2656
02
0'
0:
#2661
12
b00000000000000100110 5
1'
1:
#2666
02
0'
0:
#2671
12
b00000000000000100101 5
1'
1:
#2676
02
0'
0:
#2681
12
b00000000000000100100 5
1'
1:
#2686
02
0'
0:
#2691
12
b00000000000000100011 5
1'
1:
#2696
02
0'
0:
#2701
12
b00000000000000100010 5
1'
1:
#2706
02
0'
0:
#2711
12
b00000000000000100001 5
1'
1:
#2716
02
0'
0:
#2721
12
b00000000000000100000 5
1'
1:
#2726
02
0'
0:
#2731
12
b00000000000000011111 5
1'
1:
#2736
02
0'
0:
#2741
12
b00000000000000011110 5
1'
1:
#2746
02
0'
0:
#2751
12
b00000000000000011101 5
1'
1:
#2756
02
0'
0:
#2761
12
b00000000000000011100 5
1'
1:
#2766
02
0'
0:
#2771
12
b00000000000000011011 5
1'
1:
#2776
02
0'
0:
#2781
12
b00000000000000011010 5
1'
1:
#2786
02
0'
0:
#2791
12
b00000000000000011001 5
1'
1:
#2796
02
0'
0:
#2801
12
b00000000000000011000 5
1'
1:
#2806
02
0'
0:
#2811
12
b00000000000000010111 5
1'
1:
#2816
02
0'
0:
#2821
12
b00000000000000010110 5
1'
1:
#2826
02
0'
0:
#2831
12
b00000000000000010101 5
1'
1:
#2836
02
0'
0:
#2841
12
b00000000000000010100 5
1'
1:
#2846
02
0'
0:
#2851
12
b00000000000000010011 5
1'
1:
#2856
02
0'
0:
#2861
12
b00000000000000010010 5
1'
1:
#2866
02
0'
0:
#2871
12
b00000000000000010001 5
1'
1:
#2876
02
0'
0:
#2881
12
b00000000000000010000 5
1'
1:
#2886
02
0'
0:
#2891
12
b00000000000000001111 5
1'
1:
#2896
02
0'
0:
#2901
12
b00000000000000001110 5
1'
1:
#2906
02
0'
0:
#2911
12
b00000000000000001101 5
1'
1:
#2916
02
0'
0:
#2921
12
b00000000000000001100 5
1'
1:
#2926
02
0'
0:
#2931
12
b00000000000000001011 5
1'
1:
#2936
02
0'
0:
#2941
12
b00000000000000001010 5
1'
1:
#2946
02
0'
0:
#2951
12
b00000000000000001001 5
1'
1:
#2956
02
0'
0:
#2961
12
b00000000000000001000 5
1'
1:
#2966
02
0'
0:
#2971
12
b00000000000000000111 5
1'
1:
#2976
02
0'
0:
#2981
12
b00000000000000000110 5
1'
1:
#2986
02
0'
0:
#2991
12
b00000000000000000101 5
1'
1:
#2996
02
0'
0:
#3001
12
b00000000000000000100 5
1'
1:
#3006
02
0'
0:
#3011
12
b00000000000000000011 5
1'
1:
#3016
02
0'
0:
#3021
12
b00000000000000000010 5
1'
1:
#3026
02
0'
0:
#3031
12
b00000000000000000001 5
1'
1:
#3036
02
0'
0:
#3041
12
b00000000000000000000 5
1'
1:
#3046
02
0'
0:
#3051
b01000000 1
12
b0110 %
b00000000000001010110 5
b01000000 &
1'
1:
b01000000 /
#3056
02
0'
0:
#3061
12
b00000000000001010101 5
1'
1:
#3066
02
0'
0:
#3071
12
b00000000000001010100 5
1'
1:
#3076
02
0'
0:
#3081
12
b00000000000001010011 5
1'
1:
#3086
02
0'
0:
#3091
12
b00000000000001010010 5
1'
1:
#3096
02
0'
0:
#3101
12
b00000000000001010001 5
1'
1:
#3106
02
0'
0:
#3111
12
b00000000000001010000 5
1'
1:
#3116
02
0'
0:
#3121
12
b00000000000001001111 5
1'
1:
#3126
02
0'
0:
#3131
12
b00000000000001001110 5
1'
1:
#3136
02
0'
0:
#3141
12
b00000000000001001101 5
1'
1:
#3146
02
0'
0:
#3151
12
b00000000000001001100 5
1'
1:
#3156
02
0'
0:
#3161
12
b00000000000001001011 5
1'
1:
#3166
02
0'
0:
#3171
12
b00000000000001001010 5
1'
1:
#3176
02
0'
0:
#3181
12
b00000000000001001001 5
1'
1:
#3186
02
0'
0:
#3191
12
b00000000000001001000 5
1'
1:
#3196
02
0'
0:
#3201
12
b00000000000001000111 5
1'
1:
#3206
02
0'
0:
#3211
12
b00000000000001000110 5
1'
1:
#3216
02
0'
0:
#3221
12
b00000000000001000101 5
1'
1:
#3226
02
0'
0:
#3231
12
b00000000000001000100 5
1'
1:
#3236
02
0'
0:
#3241
12
b00000000000001000011 5
1'
1:
#3246
02
0'
0:
#3251
12
b00000000000001000010 5
1'
1:
#3256
02
0'
0:
#3261
12
b00000000000001000001 5
1'
1:
#3266
02
0'
0:
#3271
12
b00000000000001000000 5
1'
1:
#3276
02
0'
0:
#3281
12
b00000000000000111111 5
1'
1:
#3286
02
0'
0:
#3291
12
b00000000000000111110 5
1'
1:
#3296
02
0'
0:
#3301
12
b00000000000000111101 5
1'
1:
#3306
02
0'
0:
#3311
12
b00000000000000111100 5
1'
1:
#3316
02
0'
0:
#3321
12
b00000000000000111011 5
1'
1:
#3326
02
0'
0:
#3331
12
b00000000000000111010 5
1'
1:
#3336
02
0'
0:
#3341
12
b00000000000000111001 5
1'
1:
#3346
02
0'
0:
#3351
12
b00000000000000111000 5
1'
1:
#3356
02
0'
0:
#3361
12
b00000000000000110111 5
1'
1:
#3366
02
0'
0:
#3371
12
b00000000000000110110 5
1'
1:
#3376
02
0'
0:
#3381
12
b00000000000000110101 5
1'
1:
#3386
02
0'
0:
#3391
12
b00000000000000110100 5
1'
1:
#3396
02
0'
0:
#3401
12
b00000000000000110011 5
1'
1:
#3406
02
0'
0:
#3411
12
b00000000000000110010 5
1'
1:
#3416
02
0'
0:
#3421
12
b00000000000000110001 5
1'
1:
#3426
02
0'
0:
#3431
12
b00000000000000110000 5
1'
1:
#3436
02
0'
0:
#3441
12
b00000000000000101111 5
1'
1:
#3446
02
1#
0'
1(
0:
#3451
1"
12
b00000000000000101110 5
1'
1:
#3456
02
0'
0:
#3461
12
b00000000000000101101 5
1'
1:
1?
#3466
02
0'
0:
#3471
1@
12
b00000000000000101100 5
1'
1:
#3476
02
0'
0:
#3481
12
b00000000000000101011 5
1'
1:
#3486
02
0'
0:
#3491
12
b00000000000000101010 5
1'
1:
#3496
02
0'
0:
#3501
12
b00000000000000101001 5
1'
1:
#3506
02
0'
0:
#3511
12
b00000000000000101000 5
1'
1:
#3516
02
0'
0:
#3521
12
b00000000000000100111 5
1'
1:
#3526
02
0'
0:
#3531
12
b00000000000000100110 5
1'
1:
#3536
02
0'
0:
#3541
12
b00000000000000100101 5
1'
1:
#3546
02
0'
0:
#3551
12
b00000000000000100100 5
1'
1:
#3556
02
0'
0:
#3561
12
b00000000000000100011 5
1'
1:
#3566
02
0'
0:
#3571
12
b00000000000000100010 5
1'
1:
#3576
02
0'
0:
#3581
12
b00000000000000100001 5
1'
1:
#3586
02
0'
0:
#3591
12
b00000000000000100000 5
1'
1:
#3596
02
0'
0:
#3601
12
b00000000000000011111 5
1'
1:
#3606
02
0'
0:
#3611
12
b00000000000000011110 5
1'
1:
#3616
02
0'
0:
#3621
12
b00000000000000011101 5
1'
1:
#3626
02
0'
0:
#3631
12
b00000000000000011100 5
1'
1:
#3636
02
0'
0:
#3641
12
b00000000000000011011 5
1'
1:
#3646
02
0'
0:
#3651
12
b00000000000000011010 5
1'
1:
#3656
02
0'
0:
#3661
12
b00000000000000011001 5
1'
1:
#3666
02
0'
0:
#3671
12
b00000000000000011000 5
1'
1:
#3676
02
0'
0:
#3681
12
b00000000000000010111 5
1'
1:
#3686
02
0'
0:
#3691
12
b00000000000000010110 5
1'
1:
#3696
02
0'
0:
#3701
12
b00000000000000010101 5
1'
1:
#3706
02
0'
0:
#3711
12
b00000000000000010100 5
1'
1:
#3716
02
0'
0:
#3721
12
b00000000000000010011 5
1'
1:
#3726
02
0'
0:
#3731
12
b00000000000000010010 5
1'
1:
#3736
02
0'
0:
#3741
12
b00000000000000010001 5
1'
1:
#3746
02
0'
0:
#3751
12
b00000000000000010000 5
1'
1:
#3756
02
0'
0:
#3761
12
b00000000000000001111 5
1'
1:
#3766
02
0'
0:
#3771
12
b00000000000000001110 5
1'
1:
#3776
02
0'
0:
#3781
12
b00000000000000001101 5
1'
1:
#3786
02
0'
0:
#3791
12
b00000000000000001100 5
1'
1:
#3796
02
0'
0:
#3801
12
b00000000000000001011 5
1'
1:
#3806
02
0'
0:
#3811
12
b00000000000000001010 5
1'
1:
#3816
02
0'
0:
#3821
12
b00000000000000001001 5
1'
1:
#3826
02
0'
0:
#3831
12
b00000000000000001000 5
1'
1:
#3836
02
0'
0:
#3841
12
b00000000000000000111 5
1'
1:
#3846
02
0'
0:
#3851
12
b00000000000000000110 5
1'
1:
#3856
02
0'
0:
#3861
12
b00000000000000000101 5
1'
1:
#3866
02
0'
0:
#3871
12
b00000000000000000100 5
1'
1:
#3876
02
0'
0:
#3881
12
b00000000000000000011 5
1'
1:
#3886
02
0'
0:
#3891
12
b00000000000000000010 5
1'
1:
#3896
02
0'
0:
#3901
12
b00000000000000000001 5
1'
1:
#3906
02
0'
0:
#3911
12
b00000000000000000000 5
1'
1:
#3916
02
0'
0:
#3921
b10100000 1
12
b0101 %
b00000000000001010110 5
b10100000 &
1'
1:
b10100000 /
#3926
02
0'
0:
#3931
12
b00000000000001010101 5
1'
1:
#3936
02
0'
0:
#3941
12
b00000000000001010100 5
1'
1:
#3946
02
0'
0:
#3951
12
b00000000000001010011 5
1'
1:
#3956
02
0'
0:
#3961
12
b00000000000001010010 5
1'
1:
#3966
02
0'
0:
#3971
12
b00000000000001010001 5
1'
1:
#3976
02
0'
0:
#3981
12
b00000000000001010000 5
1'
1:
#3986
02
0'
0:
#3991
12
b00000000000001001111 5
1'
1:
#3996
02
0'
0:
#4001
12
b00000000000001001110 5
1'
1:
#4006
02
0'
0:
#4011
12
b00000000000001001101 5
1'
1:
#4016
02
0'
0:
#4021
12
b00000000000001001100 5
1'
1:
#4026
02
0'
0:
