test_run_dir/PSRAM_should_write_and_read/PSRAM_ModelTestTop.vcd
$date
2025-03-27T14:42+0000
$end
$version
0.2
$end
$comment

$end
$timescale 1ns  $end
$scope module PSRAM_ModelTestTop $end
 $var wire 1 " io_idle $end
 $var wire 24 & io_address $end
 $var wire 8 ) io_command $end
 $var wire 1 . io_mode $end
 $var wire 4 4 io_dir $end
 $var wire 3 5 stateReg_1 $end
 $var wire 24 6 address_1 $end
 $var wire 8 8 command_1 $end
 $var wire 8 < io_val2Write $end
 $var wire 1 @ mode_1 $end
 $var wire 1 F model $end
 $var wire 4 I io_IN $end
 $var wire 8 J readMemVal_1 $end
 $var wire 1 K reset $end
 $var wire 8 L io_readMemVal $end
 $var wire 1 T clock $end
 $var wire 8 V val2Write_1 $end
 $var wire 1 X io_CS $end
 $var wire 4 Z io_OUT $end
 $var wire 8 [ io_state $end
  $scope module model $end
   $var wire 1 ! waitDone $end
   $var wire 1 # clock $end
   $var wire 10 $ mem_readMemVal_MPORT_addr_pipe_0 $end
   $var wire 1 % mem_readMemVal_MPORT_en_pipe_0 $end
   $var wire 1 ( rw $end
   $var wire 1 + io_CS $end
   $var wire 24 , lastRead $end
   $var wire 3 - stateReg_0 $end
   $var wire 3 0 idx $end
   $var wire 8 1 val2Write $end
   $var wire 8 3 lastCommand $end
   $var wire 8 9 readMemVal $end
   $var wire 4 ; io_IN $end
   $var wire 8 = val2Write_0 $end
   $var wire 1 ? mode_0 $end
   $var wire 3 A stateReg $end
   $var wire 1 E io_dir $end
   $var wire 24 H address $end
   $var wire 8 N command_0 $end
   $var wire 8 O mem $end
   $var wire 24 P address_0 $end
   $var wire 1 Q mode $end
   $var wire 8 R command $end
   $var wire 1 S reset $end
   $var wire 4 U io_OUT $end
   $var wire 8 Y readMemVal_0 $end
    $scope module mem $end
     $var wire 8 G MPORT $end
      $scope module readMemVal_MPORT $end
       $var wire 1 ' clk $end
       $var wire 8 D data $end
       $var wire 10 M addr $end
       $var wire 1 \ en $end
      $upscope $end
      $scope module MPORT $end
       $var wire 8 * data $end
       $var wire 1 / valid $end
       $var wire 8 2 pipeline_data_0 $end
       $var wire 1 7 clk $end
       $var wire 1 : pipeline_valid_0 $end
       $var wire 10 > pipeline_addr_0 $end
       $var wire 1 B en $end
       $var wire 10 C addr $end
       $var wire 1 W mask $end
      $upscope $end
    $upscope $end
  $upscope $end
$upscope $end
$enddefinitions $end
$dumpvars
07
0:
0?
0@
0B
0E
0F
0K
b0000000000 $
0Q
b00000000 J
0S
b00000000 L
0T
b00000000 G
0X
b000000000000000000000000 H
b00000000 D
0\
b0000 4
b00000000 [
b000000000000000000000000 P
b00000000 V
b00000000 Y
b00000000 R
b0000 ;
b00000000 O
b00000000 N
b00000000 *
1W
b00000000 )
b000000000000000000000000 &
b0000 I
b000000000000000000000000 ,
b0000 U
b00000000 =
b00000000 <
b000 5
b00000000 9
b00000000 8
b00000000 3
b00000000 2
b0000 Z
b000 A
b000000000000000000000000 6
b00000000 1
b000 0
b000 -
0!
0"
0#
b0000000000 M
0%
0'
0(
b0000000000 >
0+
0.
b0000000000 C
0/
$end
#0
1S
1K
#1
1#
1T
1'
17
1(
#6
0#
0S
0T
0'
07
1X
1+
0K
#11
1#
1T
1'
17
#16
0#
0T
0'
07
#21
1#
1T
1'
17
#26
0#
0T
0'
07
#31
1#
1T
1'
17
#36
0#
0T
0'
07
0X
0+
#41
b001 0
1#
1T
1'
17
#46
0#
0T
0'
07
#51
b010 0
1#
1T
1'
17
#56
b00000001 R
0#
0T
0'
07
b00000001 8
b00000001 )
b0001 I
b0001 ;
b00000001 N
#61
b011 0
b00000011 R
1#
b00000001 3
1T
1'
17
b00000011 8
b00000011 )
b000000000000000000000001 ,
b00000011 N
#66
0#
0T
0'
07
#71
b100 0
b00000111 R
1#
b00000011 3
1T
1'
17
b00000111 8
b00000111 )
b000000000000000000000011 ,
b00000111 N
#76
b00000110 R
0#
0T
0'
07
b00000110 8
b00000110 )
b0000 I
b0000 ;
b00000110 N
#81
b101 0
b00001100 R
1#
b00000110 3
1T
1'
17
b00001100 8
b00001100 )
b000000000000000000000110 ,
b00001100 N
#86
b00001101 R
0#
0T
0'
07
b00001101 8
b00001101 )
b0001 I
b0001 ;
b00001101 N
#91
b110 0
b00011011 R
1#
b00001101 3
1T
1'
17
b00011011 8
b00011011 )
b000000000000000000001101 ,
b00011011 N
#96
b00011010 R
0#
0T
0'
07
b00011010 8
b00011010 )
b0000 I
b0000 ;
b00011010 N
#101
b111 0
b00110100 R
1#
b00011010 3
1T
1'
17
b00110100 8
b00110100 )
b000000000000000000011010 ,
b00110100 N
#106
b00110101 R
0#
0T
0'
07
b00110101 8
b00110101 )
b0001 I
b0001 ;
b00110101 N
#111
b000 0
b00000001 R
1#
b00110101 3
1T
1'
17
b00000001 8
b00000001 )
b000000000000000000000000 ,
b00000001 N
#116
b00000000 R
0#
0T
0'
07
b00000000 8
1X
b00000000 )
1+
b00000000 N
#121
1@
1Q
1#
1T
1'
17
b000000000000000000000001 ,
1.
1?
#126
0#
0T
0'
07
#131
1#
1T
1'
17
#136
0#
0T
0'
07
#141
1#
1T
1'
17
#146
0#
0T
0'
07
#151
1#
1T
1'
17
#156
0#
0'
b00010000 )
b0000 I
0+
b00010000 N
b00010000 R
0T
07
b00010000 8
0X
b0000 ;
#161
b001 0
b00000000 R
1#
b00010000 3
1T
1'
17
b00000000 8
b00000000 )
b000000000000000000010000 ,
b00000000 N
#166
b00000010 R
0#
0T
0'
07
b00000010 8
b00000010 )
b0010 I
b0010 ;
b00000010 N
#171
b010 A
1#
1'
0(
b00000000 )
b000000000000000000000000 ,
b010 -
b00000000 N
b000 0
b00000000 R
b00000010 3
1T
b010 5
17
b00000000 8
b00000010 [
#176
0#
0T
0'
07
b0000 I
b0000 ;
#181
b001 0
1#
1T
1'
17
#186
0#
0T
0'
07
#191
b010 0
1#
1T
1'
17
#196
0#
0T
0'
07
#201
b011 0
1#
1T
1'
17
#206
0#
0T
0'
07
#211
b100 0
1#
1T
1'
17
#216
0#
0T
0'
07
b0100 I
b0100 ;
#221
b101 0
b000000000000000000000100 P
1#
b0000000100 C
1T
b000000000000000000000100 &
b000000000000000000000100 6
1'
17
b000000000000000000000100 H
b000000000000000000000100 ,
#226
0#
0T
0'
07
b0000 I
b0000 ;
#231
b100 A
1#
b0001000000 C
b000000000000000001000000 &
1'
b000000000000000001000000 H
b000000000000000000000000 ,
b100 -
b000 0
b000000000000000001000000 P
1T
b100 5
b000000000000000001000000 6
17
b00000100 [
b0000000100 >
#236
b00001010 1
0#
0T
b00001010 V
0'
07
b1010 I
b00001010 *
b1010 ;
b00001010 <
b00001010 =
#241
1B
1#
1'
b10101010 *
b000000000000000000001010 ,
1/
b001 0
b10101010 1
b00001010 2
1T
b10101010 V
17
b10101010 <
b10101010 =
b0001000000 >
#246
b10101011 1
0#
0T
b10101011 V
0'
07
b1011 I
b10101011 *
b1011 ;
b10101011 <
b10101011 =
#251
0B
1#
b0001000001 C
b000000000000000001000001 &
1'
b000000000000000001000001 H
b00001011 *
b000000000000000000000000 ,
0/
b000 0
b000000000000000001000001 P
b00001011 1
b10101011 2
1T
b000000000000000001000001 6
b00001011 V
17
1:
b00001011 <
b00001011 =
#256
0#
0T
0'
07
#261
1B
1#
1'
b10111011 *
b000000000000000000001011 ,
1/
b001 0
b10111011 1
b00001011 2
1T
b10111011 V
17
0:
b10111011 <
b10111011 =
b0001000001 >
#266
b10111010 1
0#
0T
b10111010 V
0'
07
b1010 I
b10111010 *
b1010 ;
b10111010 <
b10111010 =
#271
0B
1#
b0001000010 C
b000000000000000001000010 &
1'
b000000000000000001000010 H
b00001010 *
b000000000000000000000000 ,
0/
b000 0
b000000000000000001000010 P
b00001010 1
b10111010 2
1T
b000000000000000001000010 6
b00001010 V
17
1:
b00001010 <
b00001010 =
#276
b00000000 1
0#
0T
b00000000 V
0'
07
1X
b00000000 *
1+
b00000000 <
b00000000 =
#281
b000 A
1#
1'
b000000000000000000001010 ,
b000 -
b00000000 2
1T
b000 5
17
0:
b00000000 [
b0001000010 >
#286
0#
0T
0'
07
#291
1#
1T
1'
17
#296
0#
0T
0'
07
#301
1#
1T
1'
17
#306
0#
0T
0'
07
#311
1#
1T
1'
17
#316
0#
0'
b10101110 )
b1110 I
0+
b10101110 N
b10101110 R
0T
07
b10101110 8
0X
b1110 ;
#321
b001 0
b11101110 R
1#
b10101110 3
1T
1'
17
b11101110 8
b11101110 )
b000000000000000010101110 ,
b11101110 N
#326
b11101011 R
0#
0T
0'
07
b11101011 8
b11101011 )
b1011 I
b1011 ;
b11101011 N
#331
b010 A
1#
b0000000000 C
b000000000000000000000000 &
1'
1(
b000000000000000000000000 H
b00000000 )
b000000000000000000000000 ,
b010 -
b00000000 N
b000 0
b000000000000000000000000 P
b00000000 R
b11101011 3
1T
b010 5
b000000000000000000000000 6
17
b00000000 8
b00000010 [
#336
0#
0T
0'
07
b0000 I
b0000 ;
#341
b001 0
1#
1T
1'
17
b0000000000 >
#346
0#
0T
0'
07
#351
b010 0
1#
1T
1'
17
#356
0#
0T
0'
07
#361
b011 0
1#
1T
1'
17
#366
0#
0T
0'
07
#371
b100 0
1#
1T
1'
17
#376
0#
0T
0'
07
b0100 I
b0100 ;
#381
b101 0
b000000000000000000000100 P
1#
b0000000100 C
1T
b000000000000000000000100 &
b000000000000000000000100 6
1'
17
b000000000000000000000100 H
b000000000000000000000100 ,
#386
0#
0T
0'
07
b0000 I
b0000 ;
#391
b011 A
1#
b0001000000 C
b000000000000000001000000 &
1'
b000000000000000001000000 H
b000000000000000000000000 ,
b011 -
b000 0
b000000000000000001000000 P
1T
b011 5
b000000000000000001000000 6
17
b00000011 [
b0000000100 >
#396
0#
0T
0'
07
#401
1#
b0001000000 $
b10101011 D
1%
1'
b10101011 J
b10101011 L
b0001000000 M
b001 0
1T
17
b10101011 9
b10101011 Y
1\
b0001000000 >
#406
0#
0T
0'
07
#411
b010 0
1#
1T
1'
17
#416
0#
0T
0'
07
#421
b011 0
1#
1T
1'
17
#426
0#
0T
0'
07
#431
b100 0
1#
1T
1'
17
#436
0#
0T
0'
07
#441
b101 0
1#
1T
1'
17
#446
0#
0T
0'
07
#451
b110 0
1#
1T
1'
17
#456
0#
0T
0'
07
#461
b111 0
1#
1T
1'
17
#466
0#
0T
0'
07
#471
b000 0
1!
1#
1T
b1010 U
1'
17
b1010 Z
#476
0#
0T
0'
07
#481
1#
b0001000001 C
b000000000000000001000001 &
1'
b000000000000000001000001 H
b001 0
b000000000000000001000001 P
1T
b1011 U
b000000000000000001000001 6
17
b1011 Z
#486
0#
0T
0'
07
#491
1#
b0001000001 $
b10111010 D
1'
b10111010 J
b10111010 L
b0001000001 M
b000 0
1T
17
b10111010 9
b10111010 Y
b0001000001 >
#496
0#
0T
0'
07
#501
1#
b0001000010 C
b000000000000000001000010 &
1'
b000000000000000001000010 H
b001 0
b000000000000000001000010 P
1T
b1010 U
b000000000000000001000010 6
17
b1010 Z
#506
0#
0T
0'
07
#511
1#
b0001000010 $
b00000000 D
1'
b00000000 J
b00000000 L
b0001000010 M
b000 0
1T
b0000 U
17
b00000000 9
b00000000 Y
b0000 Z
b0001000010 >
#516
0#
0T
0'
07
#521
b001 0
b000000000000000001000011 P
1#
b0001000011 C
1T
b000000000000000001000011 &
b000000000000000001000011 6
1'
17
b000000000000000001000011 H
#526
0#
0T
0'
07
1X
1+
#531
b000 A
1#
1T
0%
b000 5
1'
17
b00000000 [
0\
b000 -
b0001000011 >
#536
0#
0T
0'
07
0X
